[2019-10-28 15:22:35] temando.CRITICAL: "accountId" is required. Enter and try again. {"exception":"[object] (Magento\\Framework\\Exception\\InputException(code: 0): \"accountId\" is required. Enter and try again. at /var/www/public_html/vendor/magento/framework/Exception/InputException.php:91)"} []
[2019-10-28 15:26:17] temando.CRITICAL: "accountId" is required. Enter and try again. {"exception":"[object] (Magento\\Framework\\Exception\\InputException(code: 0): \"accountId\" is required. Enter and try again. at /var/www/public_html/vendor/magento/framework/Exception/InputException.php:91)"} []
[2019-10-28 15:28:51] temando.CRITICAL: "accountId" is required. Enter and try again. {"exception":"[object] (Magento\\Framework\\Exception\\InputException(code: 0): \"accountId\" is required. Enter and try again. at /var/www/public_html/vendor/magento/framework/Exception/InputException.php:91)"} []
[2019-10-28 15:29:56] temando.CRITICAL: "accountId" is required. Enter and try again. {"exception":"[object] (Magento\\Framework\\Exception\\InputException(code: 0): \"accountId\" is required. Enter and try again. at /var/www/public_html/vendor/magento/framework/Exception/InputException.php:91)"} []
[2019-10-28 15:33:59] temando.CRITICAL: "accountId" is required. Enter and try again. {"exception":"[object] (Magento\\Framework\\Exception\\InputException(code: 0): \"accountId\" is required. Enter and try again. at /var/www/public_html/vendor/magento/framework/Exception/InputException.php:91)"} []
[2019-10-28 15:36:12] temando.CRITICAL: "accountId" is required. Enter and try again. {"exception":"[object] (Magento\\Framework\\Exception\\InputException(code: 0): \"accountId\" is required. Enter and try again. at /var/www/public_html/vendor/magento/framework/Exception/InputException.php:91)"} []
[2019-10-28 15:36:56] temando.CRITICAL: "accountId" is required. Enter and try again. {"exception":"[object] (Magento\\Framework\\Exception\\InputException(code: 0): \"accountId\" is required. Enter and try again. at /var/www/public_html/vendor/magento/framework/Exception/InputException.php:91)"} []
[2019-10-28 15:38:27] temando.CRITICAL: "accountId" is required. Enter and try again. {"exception":"[object] (Magento\\Framework\\Exception\\InputException(code: 0): \"accountId\" is required. Enter and try again. at /var/www/public_html/vendor/magento/framework/Exception/InputException.php:91)"} []
[2019-10-28 15:40:48] temando.CRITICAL: "accountId" is required. Enter and try again. {"exception":"[object] (Magento\\Framework\\Exception\\InputException(code: 0): \"accountId\" is required. Enter and try again. at /var/www/public_html/vendor/magento/framework/Exception/InputException.php:91)"} []
[2019-11-03 19:35:31] temando.CRITICAL: "accountId" is required. Enter and try again. {"exception":"[object] (Magento\\Framework\\Exception\\InputException(code: 0): \"accountId\" is required. Enter and try again. at /var/www/public_html/vendor/magento/framework/Exception/InputException.php:91)"} []
[2019-11-11 20:42:07] temando.CRITICAL: "accountId" is required. Enter and try again. {"exception":"[object] (Magento\\Framework\\Exception\\InputException(code: 0): \"accountId\" is required. Enter and try again. at /var/www/public_html/vendor/magento/framework/Exception/InputException.php:91)"} []
[2019-11-11 20:42:26] temando.CRITICAL: "accountId" is required. Enter and try again. {"exception":"[object] (Magento\\Framework\\Exception\\InputException(code: 0): \"accountId\" is required. Enter and try again. at /var/www/public_html/vendor/magento/framework/Exception/InputException.php:91)"} []
[2019-11-12 15:39:31] temando.CRITICAL: "accountId" is required. Enter and try again. {"exception":"[object] (Magento\\Framework\\Exception\\InputException(code: 0): \"accountId\" is required. Enter and try again. at /var/www/public_html/vendor/magento/framework/Exception/InputException.php:91)"} []
[2019-11-12 15:39:58] temando.CRITICAL: "accountId" is required. Enter and try again. {"exception":"[object] (Magento\\Framework\\Exception\\InputException(code: 0): \"accountId\" is required. Enter and try again. at /var/www/public_html/vendor/magento/framework/Exception/InputException.php:91)"} []
[2019-11-12 15:40:32] temando.CRITICAL: "accountId" is required. Enter and try again. {"exception":"[object] (Magento\\Framework\\Exception\\InputException(code: 0): \"accountId\" is required. Enter and try again. at /var/www/public_html/vendor/magento/framework/Exception/InputException.php:91)"} []
[2019-11-12 15:40:41] temando.CRITICAL: "accountId" is required. Enter and try again. {"exception":"[object] (Magento\\Framework\\Exception\\InputException(code: 0): \"accountId\" is required. Enter and try again. at /var/www/public_html/vendor/magento/framework/Exception/InputException.php:91)"} []
[2019-11-12 15:41:06] temando.CRITICAL: "accountId" is required. Enter and try again. {"exception":"[object] (Magento\\Framework\\Exception\\InputException(code: 0): \"accountId\" is required. Enter and try again. at /var/www/public_html/vendor/magento/framework/Exception/InputException.php:91)"} []
[2019-11-12 15:41:15] temando.CRITICAL: "accountId" is required. Enter and try again. {"exception":"[object] (Magento\\Framework\\Exception\\InputException(code: 0): \"accountId\" is required. Enter and try again. at /var/www/public_html/vendor/magento/framework/Exception/InputException.php:91)"} []
[2019-11-12 15:41:32] temando.CRITICAL: "accountId" is required. Enter and try again. {"exception":"[object] (Magento\\Framework\\Exception\\InputException(code: 0): \"accountId\" is required. Enter and try again. at /var/www/public_html/vendor/magento/framework/Exception/InputException.php:91)"} []
[2019-11-12 15:41:43] temando.CRITICAL: "accountId" is required. Enter and try again. {"exception":"[object] (Magento\\Framework\\Exception\\InputException(code: 0): \"accountId\" is required. Enter and try again. at /var/www/public_html/vendor/magento/framework/Exception/InputException.php:91)"} []
[2019-11-12 15:41:56] temando.CRITICAL: "accountId" is required. Enter and try again. {"exception":"[object] (Magento\\Framework\\Exception\\InputException(code: 0): \"accountId\" is required. Enter and try again. at /var/www/public_html/vendor/magento/framework/Exception/InputException.php:91)"} []
[2019-11-16 15:14:29] temando.CRITICAL: "accountId" is required. Enter and try again. {"exception":"[object] (Magento\\Framework\\Exception\\InputException(code: 0): \"accountId\" is required. Enter and try again. at /var/www/public_html/vendor/magento/framework/Exception/InputException.php:91)"} []
[2019-11-16 15:18:00] temando.CRITICAL: "accountId" is required. Enter and try again. {"exception":"[object] (Magento\\Framework\\Exception\\InputException(code: 0): \"accountId\" is required. Enter and try again. at /var/www/public_html/vendor/magento/framework/Exception/InputException.php:91)"} []
[2019-11-16 15:18:25] temando.CRITICAL: "accountId" is required. Enter and try again. {"exception":"[object] (Magento\\Framework\\Exception\\InputException(code: 0): \"accountId\" is required. Enter and try again. at /var/www/public_html/vendor/magento/framework/Exception/InputException.php:91)"} []
[2019-11-16 15:18:45] temando.CRITICAL: "accountId" is required. Enter and try again. {"exception":"[object] (Magento\\Framework\\Exception\\InputException(code: 0): \"accountId\" is required. Enter and try again. at /var/www/public_html/vendor/magento/framework/Exception/InputException.php:91)"} []
[2019-11-16 15:20:30] temando.CRITICAL: "accountId" is required. Enter and try again. {"exception":"[object] (Magento\\Framework\\Exception\\InputException(code: 0): \"accountId\" is required. Enter and try again. at /var/www/public_html/vendor/magento/framework/Exception/InputException.php:91)"} []
[2019-11-24 17:45:20] temando.CRITICAL: "accountId" is required. Enter and try again. {"exception":"[object] (Magento\\Framework\\Exception\\InputException(code: 0): \"accountId\" is required. Enter and try again. at /var/www/public_html/vendor/magento/framework/Exception/InputException.php:91)"} []
[2019-11-24 17:45:46] temando.CRITICAL: "accountId" is required. Enter and try again. {"exception":"[object] (Magento\\Framework\\Exception\\InputException(code: 0): \"accountId\" is required. Enter and try again. at /var/www/public_html/vendor/magento/framework/Exception/InputException.php:91)"} []
[2019-11-24 18:11:12] temando.CRITICAL: "accountId" is required. Enter and try again. {"exception":"[object] (Magento\\Framework\\Exception\\InputException(code: 0): \"accountId\" is required. Enter and try again. at /var/www/public_html/vendor/magento/framework/Exception/InputException.php:91)"} []
[2019-11-24 18:12:15] temando.CRITICAL: "accountId" is required. Enter and try again. {"exception":"[object] (Magento\\Framework\\Exception\\InputException(code: 0): \"accountId\" is required. Enter and try again. at /var/www/public_html/vendor/magento/framework/Exception/InputException.php:91)"} []
[2019-11-24 18:12:42] temando.CRITICAL: "accountId" is required. Enter and try again. {"exception":"[object] (Magento\\Framework\\Exception\\InputException(code: 0): \"accountId\" is required. Enter and try again. at /var/www/public_html/vendor/magento/framework/Exception/InputException.php:91)"} []
[2019-11-24 18:12:56] temando.CRITICAL: "accountId" is required. Enter and try again. {"exception":"[object] (Magento\\Framework\\Exception\\InputException(code: 0): \"accountId\" is required. Enter and try again. at /var/www/public_html/vendor/magento/framework/Exception/InputException.php:91)"} []
[2019-11-24 18:13:11] temando.CRITICAL: "accountId" is required. Enter and try again. {"exception":"[object] (Magento\\Framework\\Exception\\InputException(code: 0): \"accountId\" is required. Enter and try again. at /var/www/public_html/vendor/magento/framework/Exception/InputException.php:91)"} []
[2019-11-24 18:13:27] temando.CRITICAL: "accountId" is required. Enter and try again. {"exception":"[object] (Magento\\Framework\\Exception\\InputException(code: 0): \"accountId\" is required. Enter and try again. at /var/www/public_html/vendor/magento/framework/Exception/InputException.php:91)"} []
[2019-11-24 18:32:16] temando.CRITICAL: "accountId" is required. Enter and try again. {"exception":"[object] (Magento\\Framework\\Exception\\InputException(code: 0): \"accountId\" is required. Enter and try again. at /var/www/public_html/vendor/magento/framework/Exception/InputException.php:91)"} []
[2019-11-24 18:32:24] temando.CRITICAL: "accountId" is required. Enter and try again. {"exception":"[object] (Magento\\Framework\\Exception\\InputException(code: 0): \"accountId\" is required. Enter and try again. at /var/www/public_html/vendor/magento/framework/Exception/InputException.php:91)"} []
[2019-11-24 18:36:59] temando.CRITICAL: "accountId" is required. Enter and try again. {"exception":"[object] (Magento\\Framework\\Exception\\InputException(code: 0): \"accountId\" is required. Enter and try again. at /var/www/public_html/vendor/magento/framework/Exception/InputException.php:91)"} []
[2019-11-27 21:10:01] temando.CRITICAL: "accountId" is required. Enter and try again. {"exception":"[object] (Magento\\Framework\\Exception\\InputException(code: 0): \"accountId\" is required. Enter and try again. at /var/www/public_html/vendor/magento/framework/Exception/InputException.php:91)"} []
[2019-11-27 21:10:30] temando.CRITICAL: "accountId" is required. Enter and try again. {"exception":"[object] (Magento\\Framework\\Exception\\InputException(code: 0): \"accountId\" is required. Enter and try again. at /var/www/public_html/vendor/magento/framework/Exception/InputException.php:91)"} []
[2019-11-28 22:26:40] temando.CRITICAL: "accountId" is required. Enter and try again. {"exception":"[object] (Magento\\Framework\\Exception\\InputException(code: 0): \"accountId\" is required. Enter and try again. at /var/www/public_html/vendor/magento/framework/Exception/InputException.php:91)"} []
[2019-11-28 22:28:15] temando.CRITICAL: "accountId" is required. Enter and try again. {"exception":"[object] (Magento\\Framework\\Exception\\InputException(code: 0): \"accountId\" is required. Enter and try again. at /var/www/public_html/vendor/magento/framework/Exception/InputException.php:91)"} []
[2019-12-03 14:59:16] temando.CRITICAL: "accountId" is required. Enter and try again. {"exception":"[object] (Magento\\Framework\\Exception\\InputException(code: 0): \"accountId\" is required. Enter and try again. at /var/www/public_html/vendor/magento/framework/Exception/InputException.php:91)"} []
[2019-12-03 14:59:32] temando.CRITICAL: "accountId" is required. Enter and try again. {"exception":"[object] (Magento\\Framework\\Exception\\InputException(code: 0): \"accountId\" is required. Enter and try again. at /var/www/public_html/vendor/magento/framework/Exception/InputException.php:91)"} []
[2019-12-03 15:01:56] temando.CRITICAL: "accountId" is required. Enter and try again. {"exception":"[object] (Magento\\Framework\\Exception\\InputException(code: 0): \"accountId\" is required. Enter and try again. at /var/www/public_html/vendor/magento/framework/Exception/InputException.php:91)"} []
[2019-12-03 15:02:55] temando.CRITICAL: "accountId" is required. Enter and try again. {"exception":"[object] (Magento\\Framework\\Exception\\InputException(code: 0): \"accountId\" is required. Enter and try again. at /var/www/public_html/vendor/magento/framework/Exception/InputException.php:91)"} []
[2019-12-03 15:09:25] temando.CRITICAL: "accountId" is required. Enter and try again. {"exception":"[object] (Magento\\Framework\\Exception\\InputException(code: 0): \"accountId\" is required. Enter and try again. at /var/www/public_html/vendor/magento/framework/Exception/InputException.php:91)"} []
[2019-12-03 15:10:25] temando.CRITICAL: "accountId" is required. Enter and try again. {"exception":"[object] (Magento\\Framework\\Exception\\InputException(code: 0): \"accountId\" is required. Enter and try again. at /var/www/public_html/vendor/magento/framework/Exception/InputException.php:91)"} []
